Geracao 1: T_sub = 0.03686 | T_acom = 0.369 | Sobrs = 0.26789 | Margfase = 58.2536
Geracao 1: Os melhores valores encontrados foram: k_p = 15.8094; k_d = 3.66527; k_i = 0.0881055
Geracao 1: Fitness deste melhor individuo = 0.894542
Geracao 2: T_sub = 0.0391723 | T_acom = 0.234 | Sobrs = 0.238848 | Margfase = 62.183
Geracao 2: Os melhores valores encontrados foram: k_p = 13.829; k_d = 3.32879; k_i = 8.43251
Geracao 2: Fitness deste melhor individuo = 0.918402
Geracao 3: T_sub = 0.0391723 | T_acom = 0.234 | Sobrs = 0.238848 | Margfase = 62.183
Geracao 3: Os melhores valores encontrados foram: k_p = 13.829; k_d = 3.32879; k_i = 8.43251
Geracao 3: Fitness deste melhor individuo = 0.918402
Geracao 4: T_sub = 0.0459032 | T_acom = 0.446 | Sobrs = 0.152097 | Margfase = 74.2046
Geracao 4: Os melhores valores encontrados foram: k_p = 8.62087; k_d = 2.72985; k_i = 5.14354
Geracao 4: Fitness deste melhor individuo = 0.929465
Geracao 5: T_sub = 0.0459032 | T_acom = 0.446 | Sobrs = 0.152097 | Margfase = 74.2046
Geracao 5: Os melhores valores encontrados foram: k_p = 8.62087; k_d = 2.72985; k_i = 5.14354
Geracao 5: Fitness deste melhor individuo = 0.929465
Geracao 6: T_sub = 0.0459032 | T_acom = 0.446 | Sobrs = 0.152097 | Margfase = 74.2046
Geracao 6: Os melhores valores encontrados foram: k_p = 8.62087; k_d = 2.72985; k_i = 5.14354
Geracao 6: Fitness deste melhor individuo = 0.929465
Geracao 7: T_sub = 0.0459032 | T_acom = 0.446 | Sobrs = 0.152097 | Margfase = 74.2046
Geracao 7: Os melhores valores encontrados foram: k_p = 8.62087; k_d = 2.72985; k_i = 5.14354
Geracao 7: Fitness deste melhor individuo = 0.929465
Geracao 8: T_sub = 0.037067 | T_acom = 0.414 | Sobrs = 0.222517 | Margfase = 61.8976
Geracao 8: Os melhores valores encontrados foram: k_p = 10.1316; k_d = 3.76785; k_i = 6.28481
Geracao 8: Fitness deste melhor individuo = 0.932386
Geracao 9: T_sub = 0.037067 | T_acom = 0.414 | Sobrs = 0.222517 | Margfase = 61.8976
Geracao 9: Os melhores valores encontrados foram: k_p = 10.1316; k_d = 3.76785; k_i = 6.28481
Geracao 9: Fitness deste melhor individuo = 0.932386
Geracao 10: T_sub = 0.0389742 | T_acom = 0.384 | Sobrs = 0.211569 | Margfase = 64.4773
Geracao 10: Os melhores valores encontrados foram: k_p = 10.145; k_d = 3.45936; k_i = 8.68357
Geracao 10: Fitness deste melhor individuo = 0.942002
Geracao 11: T_sub = 0.0389742 | T_acom = 0.384 | Sobrs = 0.211569 | Margfase = 64.4773
Geracao 11: Os melhores valores encontrados foram: k_p = 10.145; k_d = 3.45936; k_i = 8.68357
Geracao 11: Fitness deste melhor individuo = 0.942002
Geracao 12: T_sub = 0.0401541 | T_acom = 0.456 | Sobrs = 0.192162 | Margfase = 66.2467
Geracao 12: Os melhores valores encontrados foram: k_p = 8.55363; k_d = 3.42401; k_i = 6.47136
Geracao 12: Fitness deste melhor individuo = 0.957774
Geracao 13: T_sub = 0.0401541 | T_acom = 0.456 | Sobrs = 0.192162 | Margfase = 66.2467
Geracao 13: Os melhores valores encontrados foram: k_p = 8.55363; k_d = 3.42401; k_i = 6.47136
Geracao 13: Fitness deste melhor individuo = 0.957774
Geracao 14: T_sub = 0.0401541 | T_acom = 0.456 | Sobrs = 0.192162 | Margfase = 66.2467
Geracao 14: Os melhores valores encontrados foram: k_p = 8.55363; k_d = 3.42401; k_i = 6.47136
Geracao 14: Fitness deste melhor individuo = 0.957774
Geracao 15: T_sub = 0.0401541 | T_acom = 0.456 | Sobrs = 0.192162 | Margfase = 66.2467
Geracao 15: Os melhores valores encontrados foram: k_p = 8.55363; k_d = 3.42401; k_i = 6.47136
Geracao 15: Fitness deste melhor individuo = 0.957774
Geracao 16: T_sub = 0.0401541 | T_acom = 0.456 | Sobrs = 0.192162 | Margfase = 66.2467
Geracao 16: Os melhores valores encontrados foram: k_p = 8.55363; k_d = 3.42401; k_i = 6.47136
Geracao 16: Fitness deste melhor individuo = 0.957774
Geracao 17: T_sub = 0.0401541 | T_acom = 0.456 | Sobrs = 0.192162 | Margfase = 66.2467
Geracao 17: Os melhores valores encontrados foram: k_p = 8.55363; k_d = 3.42401; k_i = 6.47136
Geracao 17: Fitness deste melhor individuo = 0.957774
Geracao 18: T_sub = 0.0401541 | T_acom = 0.456 | Sobrs = 0.192162 | Margfase = 66.2467
Geracao 18: Os melhores valores encontrados foram: k_p = 8.55363; k_d = 3.42401; k_i = 6.47136
Geracao 18: Fitness deste melhor individuo = 0.957774
Geracao 19: T_sub = 0.0401541 | T_acom = 0.456 | Sobrs = 0.192162 | Margfase = 66.2467
Geracao 19: Os melhores valores encontrados foram: k_p = 8.55363; k_d = 3.42401; k_i = 6.47136
Geracao 19: Fitness deste melhor individuo = 0.957774
Geracao 20: T_sub = 0.0401541 | T_acom = 0.456 | Sobrs = 0.192162 | Margfase = 66.2467
Geracao 20: Os melhores valores encontrados foram: k_p = 8.55363; k_d = 3.42401; k_i = 6.47136
Geracao 20: Fitness deste melhor individuo = 0.957774
Geracao 21: T_sub = 0.0401541 | T_acom = 0.456 | Sobrs = 0.192162 | Margfase = 66.2467
Geracao 21: Os melhores valores encontrados foram: k_p = 8.55363; k_d = 3.42401; k_i = 6.47136
Geracao 21: Fitness deste melhor individuo = 0.957774
Geracao 22: T_sub = 0.0401541 | T_acom = 0.456 | Sobrs = 0.192162 | Margfase = 66.2467
Geracao 22: Os melhores valores encontrados foram: k_p = 8.55363; k_d = 3.42401; k_i = 6.47136
Geracao 22: Fitness deste melhor individuo = 0.957774
Geracao 23: T_sub = 0.0399982 | T_acom = 0.505 | Sobrs = 0.186332 | Margfase = 66.8223
Geracao 23: Os melhores valores encontrados foram: k_p = 7.95293; k_d = 3.42223; k_i = 6.32935
Geracao 23: Fitness deste melhor individuo = 0.960308
Geracao 24: T_sub = 0.0399982 | T_acom = 0.505 | Sobrs = 0.186332 | Margfase = 66.8223
Geracao 24: Os melhores valores encontrados foram: k_p = 7.95293; k_d = 3.42223; k_i = 6.32935
Geracao 24: Fitness deste melhor individuo = 0.960308
Geracao 25: T_sub = 0.0399982 | T_acom = 0.505 | Sobrs = 0.186332 | Margfase = 66.8223
Geracao 25: Os melhores valores encontrados foram: k_p = 7.95293; k_d = 3.42223; k_i = 6.32935
Geracao 25: Fitness deste melhor individuo = 0.960308
Geracao 26: T_sub = 0.0399982 | T_acom = 0.505 | Sobrs = 0.186332 | Margfase = 66.8223
Geracao 26: Os melhores valores encontrados foram: k_p = 7.95293; k_d = 3.42223; k_i = 6.32935
Geracao 26: Fitness deste melhor individuo = 0.960308
Geracao 27: T_sub = 0.0399982 | T_acom = 0.505 | Sobrs = 0.186332 | Margfase = 66.8223
Geracao 27: Os melhores valores encontrados foram: k_p = 7.95293; k_d = 3.42223; k_i = 6.32935
Geracao 27: Fitness deste melhor individuo = 0.960308
Geracao 28: T_sub = 0.0399982 | T_acom = 0.505 | Sobrs = 0.186332 | Margfase = 66.8223
Geracao 28: Os melhores valores encontrados foram: k_p = 7.95293; k_d = 3.42223; k_i = 6.32935
Geracao 28: Fitness deste melhor individuo = 0.960308
Geracao 29: T_sub = 0.0399982 | T_acom = 0.505 | Sobrs = 0.186332 | Margfase = 66.8223
Geracao 29: Os melhores valores encontrados foram: k_p = 7.95293; k_d = 3.42223; k_i = 6.32935
Geracao 29: Fitness deste melhor individuo = 0.960308
Geracao 30: T_sub = 0.0399982 | T_acom = 0.505 | Sobrs = 0.186332 | Margfase = 66.8223
Geracao 30: Os melhores valores encontrados foram: k_p = 7.95293; k_d = 3.42223; k_i = 6.32935
Geracao 30: Fitness deste melhor individuo = 0.960308
Geracao 31: T_sub = 0.0399982 | T_acom = 0.505 | Sobrs = 0.186332 | Margfase = 66.8223
Geracao 31: Os melhores valores encontrados foram: k_p = 7.95293; k_d = 3.42223; k_i = 6.32935
Geracao 31: Fitness deste melhor individuo = 0.960308
Geracao 32: T_sub = 0.0399982 | T_acom = 0.505 | Sobrs = 0.186332 | Margfase = 66.8223
Geracao 32: Os melhores valores encontrados foram: k_p = 7.95293; k_d = 3.42223; k_i = 6.32935
Geracao 32: Fitness deste melhor individuo = 0.960308
Geracao 33: T_sub = 0.0399982 | T_acom = 0.505 | Sobrs = 0.186332 | Margfase = 66.8223
Geracao 33: Os melhores valores encontrados foram: k_p = 7.95293; k_d = 3.42223; k_i = 6.32935
Geracao 33: Fitness deste melhor individuo = 0.960308
Geracao 34: T_sub = 0.0399982 | T_acom = 0.505 | Sobrs = 0.186332 | Margfase = 66.8223
Geracao 34: Os melhores valores encontrados foram: k_p = 7.95293; k_d = 3.42223; k_i = 6.32935
Geracao 34: Fitness deste melhor individuo = 0.960308
Geracao 35: T_sub = 0.0399982 | T_acom = 0.505 | Sobrs = 0.186332 | Margfase = 66.8223
Geracao 35: Os melhores valores encontrados foram: k_p = 7.95293; k_d = 3.42223; k_i = 6.32935
Geracao 35: Fitness deste melhor individuo = 0.960308
Geracao 36: T_sub = 0.0399982 | T_acom = 0.505 | Sobrs = 0.186332 | Margfase = 66.8223
Geracao 36: Os melhores valores encontrados foram: k_p = 7.95293; k_d = 3.42223; k_i = 6.32935
Geracao 36: Fitness deste melhor individuo = 0.960308
Geracao 37: T_sub = 0.0399982 | T_acom = 0.505 | Sobrs = 0.186332 | Margfase = 66.8223
Geracao 37: Os melhores valores encontrados foram: k_p = 7.95293; k_d = 3.42223; k_i = 6.32935
Geracao 37: Fitness deste melhor individuo = 0.960308
Geracao 38: T_sub = 0.0399982 | T_acom = 0.505 | Sobrs = 0.186332 | Margfase = 66.8223
Geracao 38: Os melhores valores encontrados foram: k_p = 7.95293; k_d = 3.42223; k_i = 6.32935
Geracao 38: Fitness deste melhor individuo = 0.960308
Geracao 39: T_sub = 0.0399982 | T_acom = 0.505 | Sobrs = 0.186332 | Margfase = 66.8223
Geracao 39: Os melhores valores encontrados foram: k_p = 7.95293; k_d = 3.42223; k_i = 6.32935
Geracao 39: Fitness deste melhor individuo = 0.960308
Geracao 40: T_sub = 0.0399982 | T_acom = 0.505 | Sobrs = 0.186332 | Margfase = 66.8223
Geracao 40: Os melhores valores encontrados foram: k_p = 7.95293; k_d = 3.42223; k_i = 6.32935
Geracao 40: Fitness deste melhor individuo = 0.960308
Geracao 41: T_sub = 0.0399982 | T_acom = 0.505 | Sobrs = 0.186332 | Margfase = 66.8223
Geracao 41: Os melhores valores encontrados foram: k_p = 7.95293; k_d = 3.42223; k_i = 6.32935
Geracao 41: Fitness deste melhor individuo = 0.960308
Geracao 42: T_sub = 0.0399982 | T_acom = 0.505 | Sobrs = 0.186332 | Margfase = 66.8223
Geracao 42: Os melhores valores encontrados foram: k_p = 7.95293; k_d = 3.42223; k_i = 6.32935
Geracao 42: Fitness deste melhor individuo = 0.960308
Geracao 43: T_sub = 0.0399982 | T_acom = 0.505 | Sobrs = 0.186332 | Margfase = 66.8223
Geracao 43: Os melhores valores encontrados foram: k_p = 7.95293; k_d = 3.42223; k_i = 6.32935
Geracao 43: Fitness deste melhor individuo = 0.960308
Geracao 44: T_sub = 0.0399982 | T_acom = 0.505 | Sobrs = 0.186332 | Margfase = 66.8223
Geracao 44: Os melhores valores encontrados foram: k_p = 7.95293; k_d = 3.42223; k_i = 6.32935
Geracao 44: Fitness deste melhor individuo = 0.960308
Geracao 45: T_sub = 0.0399982 | T_acom = 0.505 | Sobrs = 0.186332 | Margfase = 66.8223
Geracao 45: Os melhores valores encontrados foram: k_p = 7.95293; k_d = 3.42223; k_i = 6.32935
Geracao 45: Fitness deste melhor individuo = 0.960308
Geracao 46: T_sub = 0.0400004 | T_acom = 0.488 | Sobrs = 0.188925 | Margfase = 66.5808
Geracao 46: Os melhores valores encontrados foram: k_p = 8.34624; k_d = 3.40965; k_i = 6.19584
Geracao 46: Fitness deste melhor individuo = 0.962529
Geracao 47: T_sub = 0.0400004 | T_acom = 0.488 | Sobrs = 0.188925 | Margfase = 66.5808
Geracao 47: Os melhores valores encontrados foram: k_p = 8.34624; k_d = 3.40965; k_i = 6.19584
Geracao 47: Fitness deste melhor individuo = 0.962529
Geracao 48: T_sub = 0.0400029 | T_acom = 0.488 | Sobrs = 0.188831 | Margfase = 66.59
Geracao 48: Os melhores valores encontrados foram: k_p = 8.33641; k_d = 3.40965; k_i = 6.19584
Geracao 48: Fitness deste melhor individuo = 0.962587
Geracao 49: T_sub = 0.0400029 | T_acom = 0.488 | Sobrs = 0.188831 | Margfase = 66.59
Geracao 49: Os melhores valores encontrados foram: k_p = 8.33641; k_d = 3.40965; k_i = 6.19584
Geracao 49: Fitness deste melhor individuo = 0.962587
Geracao 50: T_sub = 0.0400029 | T_acom = 0.488 | Sobrs = 0.188831 | Margfase = 66.59
Geracao 50: Os melhores valores encontrados foram: k_p = 8.33641; k_d = 3.40965; k_i = 6.19584
Geracao 50: Fitness deste melhor individuo = 0.962587
Geracao 51: T_sub = 0.0400029 | T_acom = 0.488 | Sobrs = 0.188831 | Margfase = 66.59
Geracao 51: Os melhores valores encontrados foram: k_p = 8.33641; k_d = 3.40965; k_i = 6.19584
Geracao 51: Fitness deste melhor individuo = 0.962587
Geracao 52: T_sub = 0.0400796 | T_acom = 0.5 | Sobrs = 0.186639 | Margfase = 66.8321
Geracao 52: Os melhores valores encontrados foram: k_p = 8.1039; k_d = 3.40729; k_i = 6.22685
Geracao 52: Fitness deste melhor individuo = 0.963731
Geracao 53: T_sub = 0.0400546 | T_acom = 0.5 | Sobrs = 0.186804 | Margfase = 66.8055
Geracao 53: Os melhores valores encontrados foram: k_p = 8.10678; k_d = 3.40965; k_i = 6.23561
Geracao 53: Fitness deste melhor individuo = 0.963868
Geracao 54: T_sub = 0.0400546 | T_acom = 0.5 | Sobrs = 0.186804 | Margfase = 66.8055
Geracao 54: Os melhores valores encontrados foram: k_p = 8.10678; k_d = 3.40965; k_i = 6.23561
Geracao 54: Fitness deste melhor individuo = 0.963868
Geracao 55: T_sub = 0.0400546 | T_acom = 0.5 | Sobrs = 0.186804 | Margfase = 66.8055
Geracao 55: Os melhores valores encontrados foram: k_p = 8.10678; k_d = 3.40965; k_i = 6.23561
Geracao 55: Fitness deste melhor individuo = 0.963868
Geracao 56: T_sub = 0.0400546 | T_acom = 0.5 | Sobrs = 0.186804 | Margfase = 66.8055
Geracao 56: Os melhores valores encontrados foram: k_p = 8.10678; k_d = 3.40965; k_i = 6.23561
Geracao 56: Fitness deste melhor individuo = 0.963868
Geracao 57: T_sub = 0.0400546 | T_acom = 0.5 | Sobrs = 0.186804 | Margfase = 66.8055
Geracao 57: Os melhores valores encontrados foram: k_p = 8.10678; k_d = 3.40965; k_i = 6.23561
Geracao 57: Fitness deste melhor individuo = 0.963868
Geracao 58: T_sub = 0.0400546 | T_acom = 0.5 | Sobrs = 0.186804 | Margfase = 66.8055
Geracao 58: Os melhores valores encontrados foram: k_p = 8.10678; k_d = 3.40965; k_i = 6.23561
Geracao 58: Fitness deste melhor individuo = 0.963868
Geracao 59: T_sub = 0.0400546 | T_acom = 0.5 | Sobrs = 0.186804 | Margfase = 66.8055
Geracao 59: Os melhores valores encontrados foram: k_p = 8.10678; k_d = 3.40965; k_i = 6.23561
Geracao 59: Fitness deste melhor individuo = 0.963868
Geracao 60: T_sub = 0.0400546 | T_acom = 0.5 | Sobrs = 0.186804 | Margfase = 66.8055
Geracao 60: Os melhores valores encontrados foram: k_p = 8.10678; k_d = 3.40965; k_i = 6.23561
Geracao 60: Fitness deste melhor individuo = 0.963868
Geracao 61: T_sub = 0.0400546 | T_acom = 0.5 | Sobrs = 0.186804 | Margfase = 66.8055
Geracao 61: Os melhores valores encontrados foram: k_p = 8.10678; k_d = 3.40965; k_i = 6.23561
Geracao 61: Fitness deste melhor individuo = 0.963868
Geracao 62: T_sub = 0.0400546 | T_acom = 0.5 | Sobrs = 0.186804 | Margfase = 66.8055
Geracao 62: Os melhores valores encontrados foram: k_p = 8.10678; k_d = 3.40965; k_i = 6.23561
Geracao 62: Fitness deste melhor individuo = 0.963868
Geracao 63: T_sub = 0.0400546 | T_acom = 0.5 | Sobrs = 0.186804 | Margfase = 66.8055
Geracao 63: Os melhores valores encontrados foram: k_p = 8.10678; k_d = 3.40965; k_i = 6.23561
Geracao 63: Fitness deste melhor individuo = 0.963868
Geracao 64: T_sub = 0.0400546 | T_acom = 0.5 | Sobrs = 0.186804 | Margfase = 66.8055
Geracao 64: Os melhores valores encontrados foram: k_p = 8.10678; k_d = 3.40965; k_i = 6.23561
Geracao 64: Fitness deste melhor individuo = 0.963868
Geracao 65: T_sub = 0.0400509 | T_acom = 0.5 | Sobrs = 0.186788 | Margfase = 66.8072
Geracao 65: Os melhores valores encontrados foram: k_p = 8.10029; k_d = 3.41009; k_i = 6.24148
Geracao 65: Fitness deste melhor individuo = 0.963926
Geracao 66: T_sub = 0.0400105 | T_acom = 0.499 | Sobrs = 0.18706 | Margfase = 66.769
Geracao 66: Os melhores valores encontrados foram: k_p = 8.10029; k_d = 3.41388; k_i = 6.27035
Geracao 66: Fitness deste melhor individuo = 0.964142
Geracao 67: T_sub = 0.0400105 | T_acom = 0.499 | Sobrs = 0.18706 | Margfase = 66.769
Geracao 67: Os melhores valores encontrados foram: k_p = 8.10029; k_d = 3.41388; k_i = 6.27035
Geracao 67: Fitness deste melhor individuo = 0.964142
Geracao 68: T_sub = 0.0400113 | T_acom = 0.499 | Sobrs = 0.18703 | Margfase = 66.772
Geracao 68: Os melhores valores encontrados foram: k_p = 8.09704; k_d = 3.41388; k_i = 6.27035
Geracao 68: Fitness deste melhor individuo = 0.964161
Geracao 69: T_sub = 0.0400113 | T_acom = 0.499 | Sobrs = 0.18703 | Margfase = 66.772
Geracao 69: Os melhores valores encontrados foram: k_p = 8.09704; k_d = 3.41388; k_i = 6.27035
Geracao 69: Fitness deste melhor individuo = 0.964161
Geracao 70: T_sub = 0.0400113 | T_acom = 0.499 | Sobrs = 0.18703 | Margfase = 66.772
Geracao 70: Os melhores valores encontrados foram: k_p = 8.09704; k_d = 3.41388; k_i = 6.27035
Geracao 70: Fitness deste melhor individuo = 0.964161
Geracao 71: T_sub = 0.0400113 | T_acom = 0.499 | Sobrs = 0.18703 | Margfase = 66.772
Geracao 71: Os melhores valores encontrados foram: k_p = 8.09704; k_d = 3.41388; k_i = 6.27035
Geracao 71: Fitness deste melhor individuo = 0.964161
Geracao 72: T_sub = 0.0399854 | T_acom = 0.497 | Sobrs = 0.187122 | Margfase = 66.7661
Geracao 72: Os melhores valores encontrados foram: k_p = 8.0742; k_d = 3.41661; k_i = 6.33753
Geracao 72: Fitness deste melhor individuo = 0.964206
Geracao 73: T_sub = 0.0400002 | T_acom = 0.498 | Sobrs = 0.187027 | Margfase = 66.7788
Geracao 73: Os melhores valores encontrados foram: k_p = 8.07747; k_d = 3.41504; k_i = 6.31994
Geracao 73: Fitness deste melhor individuo = 0.964293
Geracao 74: T_sub = 0.0400006 | T_acom = 0.498 | Sobrs = 0.187016 | Margfase = 66.7788
Geracao 74: Os melhores valores encontrados foram: k_p = 8.07747; k_d = 3.41504; k_i = 6.31313
Geracao 74: Fitness deste melhor individuo = 0.964298
Geracao 75: T_sub = 0.0400006 | T_acom = 0.498 | Sobrs = 0.187016 | Margfase = 66.7788
Geracao 75: Os melhores valores encontrados foram: k_p = 8.07747; k_d = 3.41504; k_i = 6.31313
Geracao 75: Fitness deste melhor individuo = 0.964298
Geracao 76: T_sub = 0.0400031 | T_acom = 0.5 | Sobrs = 0.186949 | Margfase = 66.7787
Geracao 76: Os melhores valores encontrados foram: k_p = 8.07742; k_d = 3.41504; k_i = 6.28609
Geracao 76: Fitness deste melhor individuo = 0.964331
Geracao 77: T_sub = 0.0400031 | T_acom = 0.5 | Sobrs = 0.186949 | Margfase = 66.7787
Geracao 77: Os melhores valores encontrados foram: k_p = 8.07742; k_d = 3.41504; k_i = 6.28609
Geracao 77: Fitness deste melhor individuo = 0.964331
Geracao 78: T_sub = 0.0400034 | T_acom = 0.5 | Sobrs = 0.186938 | Margfase = 66.7799
Geracao 78: Os melhores valores encontrados foram: k_p = 8.07614; k_d = 3.41504; k_i = 6.28641
Geracao 78: Fitness deste melhor individuo = 0.964338
Geracao 79: T_sub = 0.0400042 | T_acom = 0.5 | Sobrs = 0.186919 | Margfase = 66.7787
Geracao 79: Os melhores valores encontrados foram: k_p = 8.07727; k_d = 3.41504; k_i = 6.27134
Geracao 79: Fitness deste melhor individuo = 0.964346
Geracao 80: T_sub = 0.0400042 | T_acom = 0.5 | Sobrs = 0.186919 | Margfase = 66.7787
Geracao 80: Os melhores valores encontrados foram: k_p = 8.07727; k_d = 3.41504; k_i = 6.27134
Geracao 80: Fitness deste melhor individuo = 0.964346
